<?xml version="1.0" encoding="UTF-8"?>
<Project>
   <description></description>
   <name>ProjectTest</name>
   <tag></tag>
   <UUID>f36d1576-8b6c-45b9-8cbf-0e5c0ebee8b4</UUID>
   <migratedVersion>5.9.0</migratedVersion>
   <pageLoadTimeout>0</pageLoadTimeout>
   <sourceContent>
      <sourceFolderList>
         <sourceFolderConfiguration>
            <url>Include/scripts/groovy</url>
         </sourceFolderConfiguration>
      </sourceFolderList>
      <systemFolderList>
         <systemFolderConfiguration>
            <url>Include/scripts/groovy</url>
         </systemFolderConfiguration>
         <systemFolderConfiguration>
            <url>Include/features</url>
         </systemFolderConfiguration>
         <systemFolderConfiguration>
            <url>Include/config</url>
         </systemFolderConfiguration>
      </systemFolderList>
   </sourceContent>
   <type>WEBUI</type>
</Project>
